^C:\USERS\ADMINISTRATOR\DESKTOP\CG\자구\실습\2014105077\DS 09\1\DEBUG\1.OBJ
C:\USERS\ADMINISTRATOR\DESKTOP\CG\자구\실습\2014105077\DS 09\DEBUG\1.ILK
C:\USERS\ADMINISTRATOR\DESKTOP\CG\자구\실습\2014105077\DS 09\DEBUG\1.EXE
C:\USERS\ADMINISTRATOR\DESKTOP\CG\자구\실습\2014105077\DS 09\DEBUG\1.PDB
^C:\USERS\HAM\DESKTOP\DS 09\1\DEBUG\1.OBJ
C:\USERS\HAM\DESKTOP\DS 09\DEBUG\1.ILK
C:\USERS\HAM\DESKTOP\DS 09\DEBUG\1.EXE
C:\USERS\HAM\DESKTOP\DS 09\DEBUG\1.PDB
