^C:\USERS\ADMINISTRATOR\DESKTOP\2014105082\2014105082\DS 03\3\DEBUG\3.OBJ
C:\USERS\ADMINISTRATOR\DESKTOP\2014105082\2014105082\DS 03\DEBUG\3.ILK
C:\USERS\ADMINISTRATOR\DESKTOP\2014105082\2014105082\DS 03\DEBUG\3.EXE
C:\USERS\ADMINISTRATOR\DESKTOP\2014105082\2014105082\DS 03\DEBUG\3.PDB
