^C:\USERS\ADMINISTRATOR\DESKTOP\2014105082\2014105082\DS 03\4\4.C
C:\USERS\ADMINISTRATOR\DESKTOP\2014105082\2014105082\DS 03\4\DEBUG\VC120.PDB
C:\USERS\ADMINISTRATOR\DESKTOP\2014105082\2014105082\DS 03\4\DEBUG\VC120.IDB
C:\USERS\ADMINISTRATOR\DESKTOP\2014105082\2014105082\DS 03\4\DEBUG\4.OBJ
