^C:\USERS\ADMINISTRATOR\DESKTOP\DS 02\1\1.C
C:\PROGRAM FILES\MICROSOFT VISUAL STUDIO 12.0\VC\BIN\1042\CLUI.DLL
C:\WINDOWS\GLOBALIZATION\SORTING\SORTDEFAULT.NLS
C:\WINDOWS\SYSTEM32\RSAENH.DLL
C:\PROGRAM FILES\MICROSOFT VISUAL STUDIO 12.0\VC\BIN\MSPDBSRV.EXE
C:\WINDOWS\SYSTEM32\TZRES.DLL
C:\PROGRAM FILES\MICROSOFT VISUAL STUDIO 12.0\VC\INCLUDE\STDIO.H
C:\PROGRAM FILES\MICROSOFT VISUAL STUDIO 12.0\VC\INCLUDE\CRTDEFS.H
C:\PROGRAM FILES\MICROSOFT VISUAL STUDIO 12.0\VC\INCLUDE\SAL.H
C:\PROGRAM FILES\MICROSOFT VISUAL STUDIO 12.0\VC\INCLUDE\CONCURRENCYSAL.H
C:\PROGRAM FILES\MICROSOFT VISUAL STUDIO 12.0\VC\INCLUDE\VADEFS.H
C:\PROGRAM FILES\MICROSOFT VISUAL STUDIO 12.0\VC\INCLUDE\SWPRINTF.INL
C:\PROGRAM FILES\MICROSOFT VISUAL STUDIO 12.0\VC\INCLUDE\TIME.H
C:\PROGRAM FILES\MICROSOFT VISUAL STUDIO 12.0\VC\INCLUDE\WTIME.INL
C:\PROGRAM FILES\MICROSOFT VISUAL STUDIO 12.0\VC\INCLUDE\TIME.INL
C:\USERS\ADMINISTRATOR\DESKTOP\DS 02\1\SELECTIONSORT.H
C:\PROGRAM FILES\MICROSOFT VISUAL STUDIO 12.0\VC\INCLUDE\STDLIB.H
C:\PROGRAM FILES\MICROSOFT VISUAL STUDIO 12.0\VC\INCLUDE\LIMITS.H
C:\PROGRAM FILES\MICROSOFT VISUAL STUDIO 12.0\VC\INCLUDE\MATH.H
^C:\USERS\ADMINISTRATOR\DESKTOP\DS 02\1\SELECTIONSORT.C
C:\PROGRAM FILES\MICROSOFT VISUAL STUDIO 12.0\VC\BIN\1042\CLUI.DLL
C:\WINDOWS\GLOBALIZATION\SORTING\SORTDEFAULT.NLS
C:\WINDOWS\SYSTEM32\RSAENH.DLL
C:\WINDOWS\SYSTEM32\TZRES.DLL
C:\PROGRAM FILES\MICROSOFT VISUAL STUDIO 12.0\VC\INCLUDE\STDIO.H
C:\PROGRAM FILES\MICROSOFT VISUAL STUDIO 12.0\VC\INCLUDE\CRTDEFS.H
C:\PROGRAM FILES\MICROSOFT VISUAL STUDIO 12.0\VC\INCLUDE\SAL.H
C:\PROGRAM FILES\MICROSOFT VISUAL STUDIO 12.0\VC\INCLUDE\CONCURRENCYSAL.H
C:\PROGRAM FILES\MICROSOFT VISUAL STUDIO 12.0\VC\INCLUDE\VADEFS.H
C:\PROGRAM FILES\MICROSOFT VISUAL STUDIO 12.0\VC\INCLUDE\SWPRINTF.INL
C:\PROGRAM FILES\MICROSOFT VISUAL STUDIO 12.0\VC\INCLUDE\STDLIB.H
C:\PROGRAM FILES\MICROSOFT VISUAL STUDIO 12.0\VC\INCLUDE\LIMITS.H
C:\USERS\ADMINISTRATOR\DESKTOP\DS 02\1\SELECTIONSORT.H
C:\PROGRAM FILES\MICROSOFT VISUAL STUDIO 12.0\VC\INCLUDE\MATH.H
