^C:\USERS\ADMINISTRATOR\DESKTOP\2012105091\DS 10\1\1.C
C:\USERS\ADMINISTRATOR\DESKTOP\2012105091\DS 10\1\DEBUG\VC120.PDB
C:\USERS\ADMINISTRATOR\DESKTOP\2012105091\DS 10\1\DEBUG\VC120.IDB
C:\USERS\ADMINISTRATOR\DESKTOP\2012105091\DS 10\1\DEBUG\1.OBJ
