^C:\2014105081_\DS 02\3-3\3-3.C
C:\2014105081_\DS 02\3-3\DEBUG\VC120.PDB
C:\2014105081_\DS 02\3-3\DEBUG\VC120.IDB
C:\2014105081_\DS 02\3-3\DEBUG\3-3.OBJ
^C:\2014105081_\DS 02\3-3\SELECTIONSORT3-3.C
C:\2014105081_\DS 02\3-3\DEBUG\VC120.PDB
C:\2014105081_\DS 02\3-3\DEBUG\VC120.IDB
C:\2014105081_\DS 02\3-3\DEBUG\SELECTIONSORT3-3.OBJ
