^C:\USERS\ADMINISTRATOR\DESKTOP\2012105091\DS 11\2\2.C
C:\USERS\ADMINISTRATOR\DESKTOP\2012105091\DS 11\2\DEBUG\VC120.PDB
C:\USERS\ADMINISTRATOR\DESKTOP\2012105091\DS 11\2\DEBUG\VC120.IDB
C:\USERS\ADMINISTRATOR\DESKTOP\2012105091\DS 11\2\DEBUG\2.OBJ
