^C:\USERS\ADMINISTRATOR\DESKTOP\닭다리\DS 18\DS 18\DEBUG\소스.OBJ
/OUT:"C:\USERS\ADMINISTRATOR\DESKTOP\닭다리\DS 18\DEBUG\DS 18.EXE" /INCREMENTAL /NOLOGO kernel32.lib user32.lib gdi32.lib winspool.lib comdlg32.lib advapi32.lib shell32.lib ole32.lib oleaut32.lib uuid.lib odbc32.lib odbccp32.lib /MANIFEST /MANIFESTUAC:"level='asInvoker' uiAccess='false'" /manifest:embed /DEBUG /PDB:"C:\USERS\ADMINISTRATOR\DESKTOP\닭다리\DS 18\DEBUG\DS 18.PDB" /SUBSYSTEM:CONSOLE /TLBID:1 /DYNAMICBASE /NXCOMPAT /IMPLIB:"C:\USERS\ADMINISTRATOR\DESKTOP\닭다리\DS 18\DEBUG\DS 18.LIB" /MACHINE:X86 "DEBUG\소스.OBJ"
^C:\USERS\HAM\DESKTOP\DS 18\DS 18\DEBUG\소스.OBJ
/OUT:"C:\USERS\HAM\DESKTOP\DS 18\DEBUG\DS 18.EXE" /INCREMENTAL /NOLOGO kernel32.lib user32.lib gdi32.lib winspool.lib comdlg32.lib advapi32.lib shell32.lib ole32.lib oleaut32.lib uuid.lib odbc32.lib odbccp32.lib /MANIFEST /MANIFESTUAC:"level='asInvoker' uiAccess='false'" /manifest:embed /DEBUG /PDB:"C:\USERS\HAM\DESKTOP\DS 18\DEBUG\DS 18.PDB" /SUBSYSTEM:CONSOLE /TLBID:1 /DYNAMICBASE /NXCOMPAT /IMPLIB:"C:\USERS\HAM\DESKTOP\DS 18\DEBUG\DS 18.LIB" /MACHINE:X86 "DEBUG\소스.OBJ"
