^C:\USERS\ADMINISTRATOR\DESKTOP\닭다리\DS 16\1\1.C
C:\USERS\ADMINISTRATOR\DESKTOP\닭다리\DS 16\1\DEBUG\VC120.PDB
C:\USERS\ADMINISTRATOR\DESKTOP\닭다리\DS 16\1\DEBUG\VC120.IDB
C:\USERS\ADMINISTRATOR\DESKTOP\닭다리\DS 16\1\DEBUG\1.OBJ
