^C:\USERS\HAM\DESKTOP\2014105081_\DS 07\2\DEBUG\2.OBJ
C:\USERS\HAM\DESKTOP\2014105081_\DS 07\DEBUG\2.ILK
C:\USERS\HAM\DESKTOP\2014105081_\DS 07\DEBUG\2.EXE
C:\USERS\HAM\DESKTOP\2014105081_\DS 07\DEBUG\2.PDB
