^C:\USERS\ADMINISTRATOR\DESKTOP\2014105082\2014105082\DS 07\2\DEBUG\2.OBJ
/OUT:"C:\USERS\ADMINISTRATOR\DESKTOP\2014105082\2014105082\DS 07\DEBUG\2.EXE" /INCREMENTAL /NOLOGO kernel32.lib user32.lib gdi32.lib winspool.lib comdlg32.lib advapi32.lib shell32.lib ole32.lib oleaut32.lib uuid.lib odbc32.lib odbccp32.lib /MANIFEST /MANIFESTUAC:"level='asInvoker' uiAccess='false'" /manifest:embed /DEBUG /PDB:"C:\USERS\ADMINISTRATOR\DESKTOP\2014105082\2014105082\DS 07\DEBUG\2.PDB" /SUBSYSTEM:CONSOLE /TLBID:1 /DYNAMICBASE /NXCOMPAT /IMPLIB:"C:\USERS\ADMINISTRATOR\DESKTOP\2014105082\2014105082\DS 07\DEBUG\2.LIB" /MACHINE:X86 DEBUG\2.OBJ
^C:\USERS\HAM\DESKTOP\DS 07\2\DEBUG\2.OBJ
/OUT:"C:\USERS\HAM\DESKTOP\DS 07\DEBUG\2.EXE" /INCREMENTAL /NOLOGO kernel32.lib user32.lib gdi32.lib winspool.lib comdlg32.lib advapi32.lib shell32.lib ole32.lib oleaut32.lib uuid.lib odbc32.lib odbccp32.lib /MANIFEST /MANIFESTUAC:"level='asInvoker' uiAccess='false'" /manifest:embed /DEBUG /PDB:"C:\USERS\HAM\DESKTOP\DS 07\DEBUG\2.PDB" /SUBSYSTEM:CONSOLE /TLBID:1 /DYNAMICBASE /NXCOMPAT /IMPLIB:"C:\USERS\HAM\DESKTOP\DS 07\DEBUG\2.LIB" /MACHINE:X86 DEBUG\2.OBJ
^C:\USERS\HAM\DESKTOP\2014105081_\DS 07\2\DEBUG\2.OBJ
/OUT:"C:\USERS\HAM\DESKTOP\2014105081_\DS 07\DEBUG\2.EXE" /INCREMENTAL /NOLOGO kernel32.lib user32.lib gdi32.lib winspool.lib comdlg32.lib advapi32.lib shell32.lib ole32.lib oleaut32.lib uuid.lib odbc32.lib odbccp32.lib /MANIFEST /MANIFESTUAC:"level='asInvoker' uiAccess='false'" /manifest:embed /DEBUG /PDB:"C:\USERS\HAM\DESKTOP\2014105081_\DS 07\DEBUG\2.PDB" /SUBSYSTEM:CONSOLE /TLBID:1 /DYNAMICBASE /NXCOMPAT /IMPLIB:"C:\USERS\HAM\DESKTOP\2014105081_\DS 07\DEBUG\2.LIB" /MACHINE:X86 DEBUG\2.OBJ
