﻿빌드 시작: 2015-04-06 오후 4:08:01
     1>2 노드의 "C:\Users\Administrator\Desktop\2012105091\DS 11\1\1.vcxproj" 프로젝트(Build 대상)입니다.
     1>ClCompile:
         C:\Program Files\Microsoft Visual Studio 12.0\VC\bin\CL.exe /c /ZI /nologo /W3 /WX- /Od /Oy- /D WIN32 /D _DEBUG /D _CONSOLE /D _LIB /D _UNICODE /D UNICODE /Gm /EHsc /RTC1 /MDd /GS /fp:precise /Zc:wchar_t /Zc:forScope /Fo"Debug\\" /Fd"Debug\vc120.pdb" /Gd /TC /analyze- /errorReport:prompt 1.c
         1.c
     1>c:\users\administrator\desktop\2012105091\ds 11\1\1.c(31): warning C4996: 'fopen': This function or variable may be unsafe. Consider using fopen_s instead. To disable deprecation, use _CRT_SECURE_NO_WARNINGS. See online help for details.
                 c:\program files\microsoft visual studio 12.0\vc\include\stdio.h(211) : 'fopen' 선언을 참조하십시오.
     1>c:\users\administrator\desktop\2012105091\ds 11\1\1.c(41): warning C4996: 'fscanf': This function or variable may be unsafe. Consider using fscanf_s instead. To disable deprecation, use _CRT_SECURE_NO_WARNINGS. See online help for details.
                 c:\program files\microsoft visual studio 12.0\vc\include\stdio.h(230) : 'fscanf' 선언을 참조하십시오.
     1>c:\users\administrator\desktop\2012105091\ds 11\1\1.c(33): warning C4101: 'a' :참조되지 않은 지역 변수입니다.
     1>c:\users\administrator\desktop\2012105091\ds 11\1\1.c(32): warning C4101: 'temp2' :참조되지 않은 지역 변수입니다.
     1>c:\users\administrator\desktop\2012105091\ds 11\1\1.c(66): warning C4028: 정식 매개 변수 1이(가) 선언과 다릅니다.
     1>c:\users\administrator\desktop\2012105091\ds 11\1\1.c(76): warning C4101: 'item' :참조되지 않은 지역 변수입니다.
     1>c:\users\administrator\desktop\2012105091\ds 11\1\1.c(105): warning C4101: 'queue' :참조되지 않은 지역 변수입니다.
       Link:
         C:\Program Files\Microsoft Visual Studio 12.0\VC\bin\link.exe /ERRORREPORT:PROMPT /OUT:"C:\Users\Administrator\Desktop\2012105091\DS 11\Debug\1.exe" /INCREMENTAL /NOLOGO kernel32.lib user32.lib gdi32.lib winspool.lib comdlg32.lib advapi32.lib shell32.lib ole32.lib oleaut32.lib uuid.lib odbc32.lib odbccp32.lib /MANIFEST /MANIFESTUAC:"level='asInvoker' uiAccess='false'" /manifest:embed /DEBUG /PDB:"C:\Users\Administrator\Desktop\2012105091\DS 11\Debug\1.pdb" /SUBSYSTEM:CONSOLE /TLBID:1 /DYNAMICBASE /NXCOMPAT /IMPLIB:"C:\Users\Administrator\Desktop\2012105091\DS 11\Debug\1.lib" /MACHINE:X86 Debug\1.obj
         1.vcxproj -> C:\Users\Administrator\Desktop\2012105091\DS 11\Debug\1.exe
     1>"C:\Users\Administrator\Desktop\2012105091\DS 11\1\1.vcxproj" 프로젝트를 빌드했습니다(Build 대상).

빌드했습니다.

경과 시간: 00:00:00.73
