^C:\USERS\ADMINISTRATOR\DESKTOP\DS 02\2\2.C
C:\USERS\ADMINISTRATOR\DESKTOP\DS 02\2\DEBUG\VC120.PDB
C:\USERS\ADMINISTRATOR\DESKTOP\DS 02\2\DEBUG\VC120.IDB
C:\USERS\ADMINISTRATOR\DESKTOP\DS 02\2\DEBUG\2.OBJ
^C:\USERS\ADMINISTRATOR\DESKTOP\DS 02\2\SELECTIONSORT.C
C:\USERS\ADMINISTRATOR\DESKTOP\DS 02\2\DEBUG\VC120.PDB
C:\USERS\ADMINISTRATOR\DESKTOP\DS 02\2\DEBUG\VC120.IDB
C:\USERS\ADMINISTRATOR\DESKTOP\DS 02\2\DEBUG\SELECTIONSORT.OBJ
^C:\USERS\ADMINISTRATOR\DESKTOP\DS 02\2\2.C|C:\USERS\ADMINISTRATOR\DESKTOP\DS 02\2\SELECTIONSORT2.C
C:\USERS\ADMINISTRATOR\DESKTOP\DS 02\2\DEBUG\VC120.PDB
C:\USERS\ADMINISTRATOR\DESKTOP\DS 02\2\DEBUG\VC120.IDB
C:\USERS\ADMINISTRATOR\DESKTOP\DS 02\2\DEBUG\2.OBJ
C:\USERS\ADMINISTRATOR\DESKTOP\DS 02\2\DEBUG\SELECTIONSORT2.OBJ
^C:\USERS\ADMINISTRATOR\DESKTOP\DS 02\2\SELECTIONSORT2.C
C:\USERS\ADMINISTRATOR\DESKTOP\DS 02\2\DEBUG\VC120.PDB
C:\USERS\ADMINISTRATOR\DESKTOP\DS 02\2\DEBUG\VC120.IDB
C:\USERS\ADMINISTRATOR\DESKTOP\DS 02\2\DEBUG\SELECTIONSORT2.OBJ
