^C:\USERS\ADMINISTRATOR\DESKTOP\DS 19\2\DEBUG\2.OBJ
C:\USERS\ADMINISTRATOR\DESKTOP\DS 19\DEBUG\2.ILK
C:\USERS\ADMINISTRATOR\DESKTOP\DS 19\DEBUG\2.EXE
C:\USERS\ADMINISTRATOR\DESKTOP\DS 19\DEBUG\2.PDB
